{"results":[{"vote_count":3383,"id":299536,"video":false,"vote_average":8.6,"title":"Мстители: Война бесконечности","popularity":555.264536,"poster_path":"\/qIUFg6tzKeK5bUDguonWCAFceNB.jpg","original_language":"en","original_title":"Avengers: Infinity War","genre_ids":[12,878,14,28],"backdrop_path":"\/bOGkgRGdhrBYJSLpXaxhXVstddV.jpg","adult":false,"overview":"Пока Мстители и их союзники продолжают защищать мир от различных опасностей, с которыми не смог бы справиться один супергерой, новая угроза возникает из космоса: Танос. Межгалактический тиран преследует цель собрать все шесть Камней Бесконечности — артефакты невероятной силы, с помощью которых можно менять реальность по своему желанию. Всё, с чем Мстители сталкивались ранее, вело к этому моменту — судьба Земли никогда ещё не была столь неопределённой.","release_date":"2018-05-03"},{"vote_count":513,"id":427641,"video":false,"vote_average":5.9,"title":"Рэмпейдж","popularity":157.877408,"poster_path":"\/bxbFh3VqwGhijOGXYLJYVhwAJ8S.jpg","original_language":"en","original_title":"Rampage","genre_ids":[28,12,878],"backdrop_path":"\/wrqUiMXttHE4UBFMhLHlN601MZh.jpg","adult":false,"overview":"Приматолог Дэвис Окойи предпочитает держаться подальше от людей и дружит с Джорджем, удивительно умным альфа-самцом — гориллой, которого он воспитывал с самого рождения. Но вышедший из-под контроля генетический эксперимент превращает послушную обезьяну в яростного монстра. Более того, вскоре обнаруживается, что существуют и другие модифицированные хищники. Пока свежесозданные чудовища превращают в руины Северную Америку, стирая с лица Земли все, что попадается у них на пути, Окойи вместе с опальным генным инженером пытается изобрести антидот, прорываясь по бесконечному полю боя не только, чтобы предотвратить глобальную катастрофу, но и спасти бесстрашное существо, которое когда-то было его другом.","release_date":"2018-04-12"},{"vote_count":96,"id":396806,"video":false,"vote_average":6,"title":"Анон","popularity":44.416846,"poster_path":"\/xhBTO9n3fxy3HJt7WlR9h9vvVmk.jpg","original_language":"en","original_title":"Anon","genre_ids":[878,53],"backdrop_path":"\/arYvUXhpNRU2GQQut67P5cR0c5m.jpg","adult":false,"overview":"Идеальное общество будущего: режим тотального надзора, отсутствие личной жизни, приватных территорий и гражданских прав. Казалось бы, в полностью контролируемом государстве нет места ошибкам и правонарушениям. Но однажды детектив Сол Фриленд знакомится с девушкой, которая не числится в базах данных. Перед копом приоткрывается дверь преступного мира новой эры…","release_date":"2018-05-10"},{"vote_count":274,"id":476926,"video":false,"vote_average":5.4,"title":"Титан","popularity":43.497893,"poster_path":"\/uWLEvZGMmup528mqb5z0mphgwME.jpg","original_language":"en","original_title":"The Titan","genre_ids":[878,53],"backdrop_path":"\/lvI088LImIcFNwLcniGyKMRbAK7.jpg","adult":false,"overview":"Американский военный принимает участие в грандиозном эксперименте по созданию сверхлюдей, которые после гибели Земли смогут продолжить существование человечества на планете Титан. Внезапно эксперимент по скрещиванию генов человека с инопланетным существом приводит к абсолютно непредсказуемым последствиям.","release_date":"2018-04-19"},{"vote_count":107,"id":460019,"video":false,"vote_average":6.1,"title":"Правда или действие","popularity":39.0042,"poster_path":"\/po4JZAYWs6VIejlSOxOehnUNRaI.jpg","original_language":"en","original_title":"Truth or Dare","genre_ids":[53,27],"backdrop_path":"\/eQ5xu2pQ5Kergubto5PbbUzey28.jpg","adult":false,"overview":"Обычная игра «Правда или действие» превращается в жестокую гонку со смертью, когда к процессу подключается нечто сверхъестественное. Стоит кому-то из участников соврать или не выполнить положенное действие, его ждет жестокая расправа. Кто в итоге сможет выйти победителем в жестокой игре?","release_date":"2018-04-26"},{"vote_count":328,"id":399174,"video":false,"vote_average":7.9,"title":"Остров собак","popularity":23.952778,"poster_path":"\/phspK8CoyEoVWDmxCdU3QzUWf4P.jpg","original_language":"en","original_title":"Isle of Dogs","genre_ids":[12,35,16],"backdrop_path":"\/5YtXsLG9ncjjFyGZjoeV31CGf01.jpg","adult":false,"overview":"История 12-летнего мальчика Атари Кобаяши, опекаемого коррумпированным мэром Кобаяши. Когда по Указу последнего все домашние собаки города Мегасаки изгоняются на громадную свалку, Атари в одиночку отправляется на миниатюрном летательном аппарате на мусорный остров, чтобы найти своего верного пса по прозвищу Спотс. Там на острове вместе со стаей новых друзей-дворняг он начнет эпичное путешествие, которое решит будущую судьбу всей Префектуры.","release_date":"2018-05-03"},{"vote_count":218,"id":395990,"video":false,"vote_average":5,"title":"Жажда смерти","popularity":18.778586,"poster_path":"\/w1HDoS3NdOFUv2FxoTxjLTNbVjA.jpg","original_language":"en","original_title":"Death Wish","genre_ids":[28,80,18,53],"backdrop_path":"\/uQqQvmptJLPTcWDrZXn22p7j7s3.jpg","adult":false,"overview":"Добропорядочный семьянин становится настоящей машиной для убийства после того, как уличная банда убивает его жену и калечит дочь.","release_date":"2018-04-05"},{"vote_count":107,"id":419831,"video":false,"vote_average":6.1,"title":"Я сражаюсь с великанами","popularity":13.398874,"poster_path":"\/e8hmpus9QvMo2o2dQjbvdzsbeia.jpg","original_language":"en","original_title":"I Kill Giants","genre_ids":[53,18,14,878],"backdrop_path":"\/lffgWEBiLf9DbDdb86WsGsEcWTg.jpg","adult":false,"overview":"Барбара Торсон — особенная, ее уникальный талант — это возможность видеть мир великанов. И этот мир угрожает людям. Барбаре никто не верит, но она единственная, кто может спасти человечество от исчезновения. Она объявляет великанам войну и готовится к главному сражению в своей жизни.","release_date":"2018-03-29"},{"vote_count":1,"id":440626,"video":false,"vote_average":2,"title":"Собибор","popularity":12.583305,"poster_path":"\/iGTIlhXl8ujIjoLGT92cQ3Lm9vf.jpg","original_language":"ru","original_title":"Собибор","genre_ids":[18,10752,36],"backdrop_path":"\/5KhMpFJdnOAsDmIpT0TINUNDt8L.jpg","adult":false,"overview":"История сопротивления человеческого духа бездушной машине уничтожения. В октябре 1943 года заключённые лагеря Собибор во главе с лейтенантом Красной Армии Александром Печерским поднимают восстание — единственное успешное восстание в нацистском лагере смерти.","release_date":"2018-05-03"},{"vote_count":30,"id":465136,"video":false,"vote_average":7,"title":"Привидение","popularity":11.473514,"poster_path":"\/4UnME3icxSspwL0UoGZNSyyp7Xs.jpg","original_language":"en","original_title":"Every Day","genre_ids":[18,14,10749],"backdrop_path":"\/7odR5zLsrrls6KIYT9AlES8D4kh.jpg","adult":false,"overview":"Застенчивая Рианнон встречает парня своей мечты. Вот только уже на следующий день выясняется, что он — вовсе не он, а бестелесный дух, который каждый день воплощается в новом теле. Каждый день его ждет новый дом, новая семья и чья-то чужая жизнь, фрагмент которой надо прожить. Каково это влюбиться в того, кто каждый день выглядит по-другому? И что сделать, чтобы больше не расставаться?","release_date":"2018-04-26"},{"vote_count":86,"id":434355,"video":false,"vote_average":6.3,"title":"Такси 5","popularity":11.415957,"poster_path":"\/lXeSraLgsLaeXRg6vEHv4tBrXxc.jpg","original_language":"fr","original_title":"Taxi 5","genre_ids":[35,28],"backdrop_path":"\/s9d4lrsjdTp7AT79Q0AesNomt95.jpg","adult":false,"overview":"Полицейскому, которого перевели в полицию Марселя, поручают непростое задание - ему нужно поймать банду итальянских грабителей, которые используют в налетах автомобили Феррари. А помогать ему в этом будет племянник Даниэля...","release_date":"2018-04-26"},{"vote_count":81,"id":437670,"video":false,"vote_average":6.4,"title":"Зачётный препод 3","popularity":10.563991,"poster_path":"\/7mQTPhicLspqoHXxezFohXkGeor.jpg","original_language":"de","original_title":"Fack ju Göhte 3","genre_ids":[35],"backdrop_path":"\/a3Ipy3B4APTPx1ISkls95XSs5fU.jpg","adult":false,"overview":"Классный руководитель Зэк Мюллер получил класс с самыми проблемными подростками в Германии. Ежедневно его ученики придумывают новые пакости. И тут Зэку помогает его криминальное прошлое...","release_date":"2018-04-12"},{"vote_count":38,"id":340022,"video":false,"vote_average":6.5,"title":"Опасный бизнес","popularity":10.438637,"poster_path":"\/mgLvCgFrltZ1rWeRHvWN0I7f8xO.jpg","original_language":"en","original_title":"Gringo","genre_ids":[35,18,28],"backdrop_path":"\/3RGECRrlljo80J0lhFL4Xk1s5jP.jpg","adult":false,"overview":"Дерзкая длинноногая блондинка — она идеально подходит для опасного бизнеса. Однажды одному из ее подчиненных становится известна уникальная формула, за которой гоняется весь мир. Он решает инсценировать собственное похищение и потребовать выкуп у компании. Лучше этому умнику не рассчитывать на помощь своей эффектной начальницы, ведь для корпорации он предпочтительнее мертвый, чем живой.","release_date":"2018-04-19"},{"vote_count":3,"id":467632,"video":false,"vote_average":4,"title":"Логово Монстра","popularity":8.261033,"poster_path":"\/ojCu9SLxAPwhhC2tXtHNdrTmxCH.jpg","original_language":"en","original_title":"Bad Samaritan","genre_ids":[80,18,53],"backdrop_path":"\/7xIcN1AywnH1EjbN4iWJrWH8No9.jpg","adult":false,"overview":"Двое парней, работая парковщиками у элитного ресторана, успешно обчищают дома богатых посетителей, пока те наслаждаются изысканной кухней. Но однажды, вломившись в чужой особняк, кроме роскошной добычи они обнаруживают истерзанную пленницу. Пытаясь спасти девушку, они сами все глубже попадают в западню жестокого монстра.","release_date":"2018-04-19"},{"vote_count":17,"id":433627,"video":false,"vote_average":6.9,"title":"Операция «Шаровая молния»","popularity":8.105731,"poster_path":"\/hKbZWIMyMThZ5rXrwlImXYpXMMo.jpg","original_language":"en","original_title":"7 Days in Entebbe","genre_ids":[53,18],"backdrop_path":"\/x9JU7olOsRM4xgesgWAqMupygLT.jpg","adult":false,"overview":"1976 год. Следующий из Тель-Авива в Париж самолет захвачен террористами и совершает посадку в аэропорту Энтеббе в Уганде, чтобы обменять заложников на осужденных преступников. За 7 дней так и не удается найти дипломатическое решение вопроса. Поэтому дело доходит до реализации крайне изобретательного плана спасения.","release_date":"2018-03-29"},{"vote_count":55,"id":467660,"video":false,"vote_average":6.1,"title":"Не в себе","popularity":7.785017,"poster_path":"\/2m34jQco77dTDpOj3uJy1GbyBkC.jpg","original_language":"en","original_title":"Unsane","genre_ids":[27,53],"backdrop_path":"\/dBK5v7cHXMhsQIvIcj50Aj0Gr9Z.jpg","adult":false,"overview":"Девушка покидает родной город, чтобы сбежать от проблемного прошлого и найти новую работу. Но когда она не по своей воле оказывается в психиатрическом учреждении, ей приходится столкнуться со своим самым большим страхом. Но реален ли он, или это — просто плод ее воображения? Героине кажется, что никто не верит ей, а власти не могут или не хотят помочь, поэтому она должна в одиночку противостоять своим страхам.","release_date":"2018-03-29"},{"vote_count":3,"id":469310,"video":false,"vote_average":7.3,"title":"Невероятная история о гигантской груше","popularity":7.152406,"poster_path":"\/8OMvf80zPG2XxMPeCRuTX5tAYhM.jpg","original_language":"da","original_title":"Den utrolige historie om den kæmpestore pære","genre_ids":[12,16,10751],"backdrop_path":"\/tNSMlWEZswMVw4Hw9zVYoIlzm54.jpg","adult":false,"overview":"Слон Себастьян и его лучший друг Кот Митчо как-то находят бутылку с посланием от пропавшего бургомистра, который просит спасти его с Таинственного острова. Кроме того, в бутылке оказывается семечко, которое они сажают, а ночью из него вырастает гигантская груша. Друзья решают использовать ее как корабль. Себастьян, Митчо и их знакомый профессор Глюкоза отправляются в захватывающее путешествие, в ходе которого их ждет встреча с пиратами, морским драконом и опасными призраками.","release_date":"2018-04-05"},{"vote_count":3,"id":434986,"video":false,"vote_average":0,"title":"Тело","popularity":7.127768,"poster_path":"\/xOMeBc3IVLqIyVnDDLj9vhAoWiJ.jpg","original_language":"en","original_title":"Replace","genre_ids":[53,27],"backdrop_path":"\/lBaCm1qqMlshOIVuLmr1svF3Wdy.jpg","adult":false,"overview":"Молодая девушка Кира сталкивается со странной болезнью: ее кожа быстро стареет и начинает осыпаться. От этой заразы находится лечение — Кира может заменить собственную кожу чужой, но ей приходится выбирать: погибнуть самой или выжить, погубив кого-то другого.","release_date":"2018-05-03"},{"vote_count":11,"id":399248,"video":false,"vote_average":7,"title":"Точка невозврата","popularity":7.119062,"poster_path":"\/nWBoXMLJ9e11G7owfe7mnvVqmIg.jpg","original_language":"en","original_title":"Beirut","genre_ids":[28,53,18],"backdrop_path":"\/qbVRRq9qhqVxeaFUBJoyyf94JN2.jpg","adult":false,"overview":"Бывший американский дипломат возвращается в Бейрут, чтобы спасти своих старых коллег, попавших в заложники к боевикам.","release_date":"2018-04-19"},{"vote_count":16,"id":416494,"video":false,"vote_average":6.6,"title":"Статус: Обновлен","popularity":7.048602,"poster_path":"\/fXtlggJ8LQFFDtPDHf1QEbVxDXh.jpg","original_language":"en","original_title":"Status Update","genre_ids":[35,14],"backdrop_path":"\/MM6MxpRnsi5BkXJhWXVhFC0ccr.jpg","adult":false,"overview":"Подростку Кайлу неожиданно попадает в руки новый смартфон с необычным приложением, которое делает реальностью опубликованные им посты. Почти моментально Кайл оказывается в центре внимания, что становится для него настоящим испытанием…","release_date":"2018-05-10"}],"page":1,"total_results":47,"dates":{"maximum":"2018-05-13","minimum":"2018-03-25"},"total_pages":3}